<svg xmlns="http://www.w3.org/2000/svg" id="Group_68" width="73.643" height="73.705" data-name="Group 68" viewBox="0 0 73.643 73.705">
    <defs>
        <linearGradient id="linear-gradient" x1=".211" x2=".881" y1=".211" y2="1" gradientUnits="objectBoundingBox">
            <stop offset="0" stop-color="#0f2756"/>
            <stop offset="1" stop-color="#1d428b"/>
        </linearGradient>
        <linearGradient id="linear-gradient-2" x1=".144" x2="1" y2="1" gradientUnits="objectBoundingBox">
            <stop offset="0" stop-color="#e83866"/>
            <stop offset=".244" stop-color="#e83866"/>
            <stop offset=".715" stop-color="#e57a3c"/>
            <stop offset="1" stop-color="#e57a3c"/>
        </linearGradient>
    </defs>
    <g id="Group_70" data-name="Group 70">
        <rect id="Rectangle_968" width="73.643" height="73.643" fill="url(#linear-gradient)" data-name="Rectangle 968" rx="26" transform="translate(0 .062)"/>
        <path id="Path_988" fill="url(#linear-gradient-2)" d="M876.477 1993.9v8.815h-7.409v9.22h7.409v26.906s.325 8.761 4.517 12.668 12.42 3.744 12.42 3.744h6.131l.288-10.072s-13.252 3.876-12.875-10.053.505-23.194.505-23.194h12.369v-9.22h-12.369v-8.814z" data-name="Path 988" transform="translate(-856.918 -1993.897)"/>
    </g>
</svg>
